Climate Change Sentiment in the US
…
Tokenization

## Joining, by = "word"

## # A tibble: 2,477 x 2
##    word       value
##    <chr>      <dbl>
##  1 abandon       -2
##  2 abandoned     -2
##  3 abandons      -2
##  4 abducted      -2
##  5 abduction     -2
##  6 abductions    -2
##  7 abhor         -3
##  8 abhorred      -3
##  9 abhorrent     -3
## 10 abhors        -3
## # ... with 2,467 more rows

## # A tibble: 13,875 x 2
##    word        sentiment
##    <chr>       <chr>    
##  1 abacus      trust    
##  2 abandon     fear     
##  3 abandon     negative 
##  4 abandon     sadness  
##  5 abandoned   anger    
##  6 abandoned   fear     
##  7 abandoned   negative 
##  8 abandoned   sadness  
##  9 abandonment anger    
## 10 abandonment fear     
## # ... with 13,865 more rows

## # A tibble: 6,786 x 2
##    word        sentiment
##    <chr>       <chr>    
##  1 2-faces     negative 
##  2 abnormal    negative 
##  3 abolish     negative 
##  4 abominable  negative 
##  5 abominably  negative 
##  6 abominate   negative 
##  7 abomination negative 
##  8 abort       negative 
##  9 aborted     negative 
## 10 aborts      negative 
## # ... with 6,776 more rows
…
Term frequency - inverse document

## New names:
## * text -> text...1
## * text -> text...2
## * text -> text...3
## * text -> text...4
## * text -> text...5

## Joining, by = "docs"

## # A tibble: 2,157 x 7
##    docs  word      n total     tf   idf tf_idf
##    <chr> <chr> <int> <int>  <dbl> <dbl>  <dbl>
##  1 doc4  the      74  1242 0.0596     0      0
##  2 doc4  to       47  1242 0.0378     0      0
##  3 doc3  the      46   767 0.0600     0      0
##  4 doc2  the      43   634 0.0678     0      0
##  5 doc4  of       42  1242 0.0338     0      0
##  6 doc1  the      40  1035 0.0386     0      0
##  7 doc5  the      38   684 0.0556     0      0
##  8 doc4  a        35  1242 0.0282     0      0
##  9 doc1  to       34  1035 0.0329     0      0
## 10 doc3  of       34   767 0.0443     0      0
## # ... with 2,147 more rows

Recommendations

Based on my analysis, it seems that Virginians see climate change as something to anticipate and be fearful of. Overall, Virginians have a negative sentiment toward climate change because they see it as an important issue. I would recommend pursuing ways to make a direct effort to support climate change in virginia. Based on our word map and sentiment analysis, Virginians clearly know the major factors contributing to our changing climate. Whats important for them are clear steps toward action to slow down climate change.

New York Climate Change Sentiment

## Joining, by = "word"

## # A tibble: 2,477 x 2
##    word       value
##    <chr>      <dbl>
##  1 abandon       -2
##  2 abandoned     -2
##  3 abandons      -2
##  4 abducted      -2
##  5 abduction     -2
##  6 abductions    -2
##  7 abhor         -3
##  8 abhorred      -3
##  9 abhorrent     -3
## 10 abhors        -3
## # ... with 2,467 more rows

## # A tibble: 13,875 x 2
##    word        sentiment
##    <chr>       <chr>    
##  1 abacus      trust    
##  2 abandon     fear     
##  3 abandon     negative 
##  4 abandon     sadness  
##  5 abandoned   anger    
##  6 abandoned   fear     
##  7 abandoned   negative 
##  8 abandoned   sadness  
##  9 abandonment anger    
## 10 abandonment fear     
## # ... with 13,865 more rows

## # A tibble: 6,786 x 2
##    word        sentiment
##    <chr>       <chr>    
##  1 2-faces     negative 
##  2 abnormal    negative 
##  3 abolish     negative 
##  4 abominable  negative 
##  5 abominably  negative 
##  6 abominate   negative 
##  7 abomination negative 
##  8 abort       negative 
##  9 aborted     negative 
## 10 aborts      negative 
## # ... with 6,776 more rows
…
Tokenization

## Joining, by = "word"

## # A tibble: 2,477 x 2
##    word       value
##    <chr>      <dbl>
##  1 abandon       -2
##  2 abandoned     -2
##  3 abandons      -2
##  4 abducted      -2
##  5 abduction     -2
##  6 abductions    -2
##  7 abhor         -3
##  8 abhorred      -3
##  9 abhorrent     -3
## 10 abhors        -3
## # ... with 2,467 more rows

## # A tibble: 13,875 x 2
##    word        sentiment
##    <chr>       <chr>    
##  1 abacus      trust    
##  2 abandon     fear     
##  3 abandon     negative 
##  4 abandon     sadness  
##  5 abandoned   anger    
##  6 abandoned   fear     
##  7 abandoned   negative 
##  8 abandoned   sadness  
##  9 abandonment anger    
## 10 abandonment fear     
## # ... with 13,865 more rows

## # A tibble: 6,786 x 2
##    word        sentiment
##    <chr>       <chr>    
##  1 2-faces     negative 
##  2 abnormal    negative 
##  3 abolish     negative 
##  4 abominable  negative 
##  5 abominably  negative 
##  6 abominate   negative 
##  7 abomination negative 
##  8 abort       negative 
##  9 aborted     negative 
## 10 aborts      negative 
## # ... with 6,776 more rows
…
